%YAML 1.1
%TAG !u! tag:unity3d.com,2011:
--- !u!114 &11400000
MonoBehaviour:
  m_ObjectHideFlags: 0
  m_CorrespondingSourceObject: {fileID: 0}
  m_PrefabInstance: {fileID: 0}
  m_PrefabAsset: {fileID: 0}
  m_GameObject: {fileID: 0}
  m_Enabled: 1
  m_EditorHideFlags: 0
  m_Script: {fileID: 11500000, guid: b7fdd7f04e1624f4f9d02c63f9a7536e, type: 3}
  m_Name: TopDownCameraDataIntro
  m_EditorClassIdentifier: 
  moveSmoothTime: 1
  heightSmoothTime: 1
  rotationSmoothTime: 0.1
  applySmooth: 1
  followBehindDistance: 36.6
  followRightDistance: 0
  lookThisFarInFront: 18.5
  lookThisFarInRight: 0
  height: 0.5
  offset: {x: 0, y: 0, z: 33.1}
  colliderTrigger: 0
