%YAML 1.1
%TAG !u! tag:unity3d.com,2011:
--- !u!1 &5624130342881301134
GameObject:
  m_ObjectHideFlags: 0
  m_CorrespondingSourceObject: {fileID: 0}
  m_PrefabInstance: {fileID: 0}
  m_PrefabAsset: {fileID: 0}
  serializedVersion: 6
  m_Component:
  - component: {fileID: 4992024764859009076}
  m_Layer: 0
  m_Name: RobotArm
  m_TagString: Untagged
  m_Icon: {fileID: 0}
  m_NavMeshLayer: 0
  m_StaticEditorFlags: 0
  m_IsActive: 1
--- !u!4 &4992024764859009076
Transform:
  m_ObjectHideFlags: 0
  m_CorrespondingSourceObject: {fileID: 0}
  m_PrefabInstance: {fileID: 0}
  m_PrefabAsset: {fileID: 0}
  m_GameObject: {fileID: 5624130342881301134}
  m_LocalRotation: {x: 0, y: 0, z: 0, w: 1}
  m_LocalPosition: {x: 19.592, y: 1.02, z: -10.232}
  m_LocalScale: {x: 1, y: 1, z: 1}
  m_Children:
  - {fileID: 2769222726560861417}
  m_Father: {fileID: 0}
  m_RootOrder: 0
  m_LocalEulerAnglesHint: {x: 0, y: 0, z: 0}
--- !u!1001 &2442349682691943170
PrefabInstance:
  m_ObjectHideFlags: 0
  serializedVersion: 2
  m_Modification:
    m_TransformParent: {fileID: 4992024764859009076}
    m_Modifications:
    - target: {fileID: -8679921383154817045, guid: 68d1401d986f23740838601b92256165, type: 3}
      propertyPath: m_LocalPosition.x
      value: -0.70861435
      objectReference: {fileID: 0}
    - target: {fileID: -8679921383154817045, guid: 68d1401d986f23740838601b92256165, type: 3}
      propertyPath: m_LocalPosition.y
      value: -1.0200001
      objectReference: {fileID: 0}
    - target: {fileID: -8679921383154817045, guid: 68d1401d986f23740838601b92256165, type: 3}
      propertyPath: m_LocalPosition.z
      value: 0.088869095
      objectReference: {fileID: 0}
    - target: {fileID: -8679921383154817045, guid: 68d1401d986f23740838601b92256165, type: 3}
      propertyPath: m_LocalRotation.x
      value: -0
      objectReference: {fileID: 0}
    - target: {fileID: -8679921383154817045, guid: 68d1401d986f23740838601b92256165, type: 3}
      propertyPath: m_LocalRotation.y
      value: -0
      objectReference: {fileID: 0}
    - target: {fileID: -8679921383154817045, guid: 68d1401d986f23740838601b92256165, type: 3}
      propertyPath: m_LocalRotation.z
      value: -0.4537034
      objectReference: {fileID: 0}
    - target: {fileID: -8679921383154817045, guid: 68d1401d986f23740838601b92256165, type: 3}
      propertyPath: m_LocalRotation.w
      value: 0.8911528
      objectReference: {fileID: 0}
    - target: {fileID: -8679921383154817045, guid: 68d1401d986f23740838601b92256165, type: 3}
      propertyPath: m_RootOrder
      value: 0
      objectReference: {fileID: 0}
    - target: {fileID: -8679921383154817045, guid: 68d1401d986f23740838601b92256165, type: 3}
      propertyPath: m_LocalEulerAnglesHint.x
      value: 0
      objectReference: {fileID: 0}
    - target: {fileID: -8679921383154817045, guid: 68d1401d986f23740838601b92256165, type: 3}
      propertyPath: m_LocalEulerAnglesHint.y
      value: 0
      objectReference: {fileID: 0}
    - target: {fileID: -8679921383154817045, guid: 68d1401d986f23740838601b92256165, type: 3}
      propertyPath: m_LocalEulerAnglesHint.z
      value: -53.963
      objectReference: {fileID: 0}
    - target: {fileID: 919132149155446097, guid: 68d1401d986f23740838601b92256165, type: 3}
      propertyPath: m_Name
      value: arm
      objectReference: {fileID: 0}
    m_RemovedComponents: []
  m_SourcePrefab: {fileID: 100100000, guid: 68d1401d986f23740838601b92256165, type: 3}
--- !u!4 &2769222726560861417 stripped
Transform:
  m_CorrespondingSourceObject: {fileID: -8679921383154817045, guid: 68d1401d986f23740838601b92256165, type: 3}
  m_PrefabInstance: {fileID: 2442349682691943170}
  m_PrefabAsset: {fileID: 0}
